<svg version="1.2" xmlns="http://www.w3.org/2000/svg" viewBox="0 0 153 147" width="153" height="147">
	<title>abstract-1-svg</title>
	<defs>
		<clipPath clipPathUnits="userSpaceOnUse" id="cp1">
			<path d="m0-22h172v169h-172z"/>
		</clipPath>
		<image  width="153" height="147" id="img1" href="data:image/png;base64,iVBORw0KGgoAAAANSUhEUgAAAJkAAACTAQMAAACnCSmfAAAAAXNSR0IB2cksfwAAAANQTFRFyf/buyFmOwAAABlJREFUeJztwQEBAAAAgiD/r25IQAEAAKcGDA8AAZvxe1QAAAAASUVORK5CYII="/>
	</defs>
	<style>
		.s0 { fill: #f6f7f9 } 
	</style>
	<g id="Clip-Path" clip-path="url(#cp1)">
		<g id="Layer">
			<use id="Layer 1" href="#img1" x="0" y="0"/>
			<path id="Layer" class="s0" d="m172 118.8c0 15.6-12.8 28.2-28.7 28.2-15.8 0-28.6-12.6-28.6-28.2 0-15.5 12.8-28.1 28.6-28.1 15.9 0 28.7 12.6 28.7 28.1z"/>
			<path id="Layer" class="s0" d="m136.2 51.9c0 13.6-11.3 24.7-25.1 24.7-13.9 0-25.1-11.1-25.1-24.7 0-13.6 11.2-24.6 25.1-24.6 13.8 0 25.1 11 25.1 24.6z"/>
			<path id="Layer" class="s0" d="m86 104.7c0 23.4-19.3 42.3-43 42.3-23.7 0-43-18.9-43-42.3 0-23.3 19.3-42.2 43-42.2 23.7 0 43 18.9 43 42.2z"/>
			<path id="Layer" class="s0" d="m71.7 13.2c0 19.5-16.1 35.2-35.9 35.2-19.8 0-35.8-15.7-35.8-35.2 0-19.4 16-35.2 35.8-35.2 19.8 0 35.9 15.8 35.9 35.2z"/>
			<path id="Layer" class="s0" d="m172-0.9c0 11.7-9.6 21.1-21.5 21.1-11.9 0-21.5-9.4-21.5-21.1 0-11.6 9.6-21.1 21.5-21.1 11.9 0 21.5 9.5 21.5 21.1z"/>
			<path id="Layer" class="s0" d="m164.8 69.5c0 3.9-3.2 7.1-7.1 7.1-4 0-7.2-3.2-7.2-7.1 0-3.8 3.2-7 7.2-7 3.9 0 7.1 3.2 7.1 7z"/>
			<path id="Layer" class="s0" d="m111.1 2.6c0 5.9-4.8 10.6-10.8 10.6-5.9 0-10.7-4.7-10.7-10.6 0-5.8 4.8-10.5 10.7-10.5 6 0 10.8 4.7 10.8 10.5z"/>
		</g>
	</g>
</svg>