<svg version="1.2" xmlns="http://www.w3.org/2000/svg" viewBox="0 0 144 160" width="144" height="160">
	<title>abstract-2-svg</title>
	<defs>
		<image  width="144" height="160" id="img1" href="data:image/png;base64,iVBORw0KGgoAAAANSUhEUgAAAJAAAACgAQMAAADZ8ndWAAAAAXNSR0IB2cksfwAAAANQTFRF4cn/OGAExwAAABlJREFUeJztwQENAAAAwqD3T20PBxQAAPBiC+AAAeVyIhwAAAAASUVORK5CYII="/>
	</defs>
	<style>
		.s0 { fill: #f6f7f9 } 
	</style>
	<use id="Layer 1" href="#img1" x="0" y="0"/>
	<path id="Layer" class="s0" d="m144 142v18c-69.6 0-126-56.4-126-126h18c0 59.6 48.3 108 108 108z"/>
	<path id="Layer" class="s0" d="m72 34c0 39.8 32.2 72 72 72v18c-49.7 0-90-40.3-90-90 0-49.7 40.3-90 90-90v18c-39.8 0-72 32.2-72 72z"/>
	<path id="Layer" class="s0" d="m198 34h-54v54c-29.8 0-54-24.2-54-54 0-29.8 24.2-54 54-54 29.8 0 54 24.2 54 54z"/>
</svg>