<svg version="1.2" xmlns="http://www.w3.org/2000/svg" viewBox="0 0 133 107" width="133" height="107">
	<title>abstract-3-svg</title>
	<defs>
		<clipPath clipPathUnits="userSpaceOnUse" id="cp1">
			<path d="m104.56-60l61.63 104.56-104.56 61.63-61.63-104.56z"/>
		</clipPath>
		<image  width="133" height="107" id="img1" href="data:image/png;base64,iVBORw0KGgoAAAANSUhEUgAAAIUAAABrAQMAAABjWtONAAAAAXNSR0IB2cksfwAAAANQTFRF/8nJ4WIfJAAAABdJREFUeJxjYBgFo2AUjIJRMApGwcAAAAeGAAEBhd3pAAAAAElFTkSuQmCC"/>
	</defs>
	<style>
		.s0 { fill: #f6f7f9 } 
	</style>
	<g id="Clip-Path" clip-path="url(#cp1)">
		<g id="Layer">
			<use id="Layer 1" href="#img1" x="0" y="0"/>
			<path id="Layer" class="s0" d="m104.4-59.9l18.1 30.6c9.9 16.9 4.3 38.7-12.6 48.7-16.9 10-38.7 4.3-48.7-12.6-10-16.9-4.3-38.7 12.6-48.7z"/>
			<path id="Layer" class="s0" d="m61.5 106.3l-18.1-30.6c-9.9-17-4.3-38.8 12.6-48.7 16.9-10 38.7-4.4 48.7 12.6 9.9 16.9 4.3 38.7-12.6 48.6z"/>
			<path id="Layer" class="s0" d="m148.6 54.9c-9.6 5.7-22 2.5-27.7-7.1-5.7-9.7-2.5-22.1 7.2-27.7 9.6-5.7 22-2.5 27.7 7.1 5.6 9.6 2.4 22-7.2 27.7z"/>
			<path id="Layer" class="s0" d="m33.1 23.2c-8.4 5-19.3 2.2-24.3-6.2-4.9-8.5-2.1-19.3 6.3-24.3 8.4-4.9 19.3-2.1 24.2 6.3 5 8.4 2.2 19.3-6.2 24.2z"/>
		</g>
	</g>
</svg>