<?xml version="1.0" standalone="no"?>
<!DOCTYPE svg PUBLIC "-//W3C//DTD SVG 20010904//EN"
 "http://www.w3.org/TR/2001/REC-SVG-20010904/DTD/svg10.dtd">
<svg version="1.0" xmlns="http://www.w3.org/2000/svg"
 width="2263.000000pt" height="2479.000000pt" viewBox="0 0 2263.000000 2479.000000"
 preserveAspectRatio="xMidYMid meet">

<g transform="translate(0.000000,2479.000000) scale(0.100000,-0.100000)"
fill="#000000" stroke="none">
<path d="M2387 24735 c-418 -57 -803 -246 -1111 -545 -323 -314 -504 -658
-593 -1130 -17 -91 -18 -497 -21 -8895 -2 -6156 0 -8836 8 -8920 86 -970 836
-1729 1804 -1824 75 -8 862 -11 2488 -11 l2378 0 0 670 0 670 -2382 3 c-2667
3 -2427 -4 -2588 75 -58 28 -95 57 -165 127 -100 100 -153 191 -180 309 -13
57 -15 1081 -13 8843 l3 8778 22 65 c67 197 222 353 422 424 l86 31 5058 3
5057 2 0 -1327 c0 -816 4 -1372 10 -1443 17 -193 59 -338 143 -505 158 -309
439 -549 772 -659 194 -63 91 -59 1658 -63 l1427 -4 0 -999 0 -1000 670 0 670
0 -2 1403 -3 1402 -31 86 c-17 48 -51 117 -77 155 -67 101 -4129 4156 -4209
4202 -31 19 -89 45 -130 60 l-73 27 -5500 1 c-4547 2 -5517 0 -5598 -11z"/>
<path d="M6120 10791 l0 -3301 550 0 550 0 0 1243 0 1244 543 6 c683 8 912 24
1203 83 431 87 710 282 966 674 161 247 261 523 314 872 22 141 30 599 15 766
-53 561 -239 987 -568 1303 -220 210 -454 324 -745 363 -274 37 -335 39 -1585
43 l-1243 4 0 -3300z m2250 2150 c253 -33 363 -77 486 -194 135 -128 214 -273
254 -467 19 -91 21 -127 17 -275 -6 -199 -23 -280 -91 -420 -100 -209 -273
-358 -473 -409 -171 -44 -508 -65 -1045 -66 l-298 0 0 926 0 926 533 -5 c297
-3 570 -10 617 -16z"/>
<path d="M11150 10790 l0 -3302 1168 5 c1226 5 1267 6 1512 52 126 24 300 71
388 106 121 48 298 143 402 217 125 88 365 328 452 452 275 390 476 944 562
1551 37 262 47 393 53 744 17 973 -107 1678 -401 2280 -134 273 -289 490 -487
680 -262 252 -515 386 -856 455 -269 54 -257 53 -1570 57 l-1223 4 0 -3301z
m2130 2160 c412 -29 617 -112 827 -333 87 -92 136 -162 201 -294 118 -235 186
-522 224 -953 17 -197 17 -976 0 -1170 -59 -659 -201 -1080 -436 -1297 -259
-238 -485 -282 -1443 -283 l-403 0 0 2170 0 2170 443 0 c243 0 507 -5 587 -10z"/>
<path d="M16620 10790 l0 -3300 550 0 550 0 0 1400 0 1400 1135 0 1135 0 0
565 0 565 -1135 0 -1135 0 0 770 0 770 1310 0 1310 0 0 565 0 565 -1860 0
-1860 0 0 -3300z"/>
</g>
</svg>
